Research and Development,5,3,4
Services,5,3,6
Product Management,3,4,5
Support,4,7,6
Engineering,4,6,6
Services,5,7,6
Accounting,4,7,6
Research and Development,3,7,4
Research and Development,3,6,4
Research and Development,4,7,4
Sales,3,7,5
Business Development,4,6,6
Human Resources,3,3,4
Product Management,3,7,4
Marketing,5,7,6
Product Management,4,3,4
Product Management,4,4,4
Sales,5,4,6
Sales,4,3,4
Product Management,5,6,6